Team
…
Part 2: Tidying

1. Reformat the defClean data frame into a tidy format using pivot_longer. The type of statistic (Tackles_Solo, Tackles_ASST, etc) is added as a new key column named stat.

defClean <- defClean %>% pivot_longer(Tackles_Solo:Pass_PB, names_to  = "Stat", values_to = "Total")
defClean

## # A tibble: 4,518 x 4
##    Name            Opponent Stat         Total
##    <fct>           <fct>    <chr>        <dbl>
##  1 White, Lawrence UNI      Tackles_Solo     4
##  2 White, Lawrence UNI      Tackles_ASST     4
##  3 White, Lawrence UNI      Tackles_TFL      0
##  4 White, Lawrence UNI      Tackles_Sack     0
##  5 White, Lawrence UNI      Turnover_FF      0
##  6 White, Lawrence UNI      Turnover_FR      0
##  7 White, Lawrence UNI      Turnover_INT     0
##  8 White, Lawrence UNI      Pass_QBH         1
##  9 White, Lawrence UNI      Pass_PB          1
## 10 White, Lawrence Iowa     Tackles_Solo     4
## # ... with 4,508 more rows
…
